module frontend

go 1.21.0

require (
	github.com/go-redis/redis/v8 v8.11.5
	github.com/google/uuid v1.3.1
	github.com/gorilla/mux v1.8.0
)

require (
	github.com/cespare/xxhash/v2 v2.1.2 // indirect
	github.com/dgryski/go-rendezvous v0.0.0-20200823014737-9f7001d12a5f // indirect
	golang.org/x/net v0.14.0 // indirect
	golang.org/x/sys v0.11.0 // indirect
)
